{
  "speakers": [
    {
      "speakerID": "1231331313",
      "speakerName": "Alex Lima",
      "speakerImage": "https://www.gosselinlaw.com/wp-content/uploads/2017/12/female-placeholder.jpg",
      "speakerRole": "Diretor e Product Manager na Work & Co",
      "speakerTags": [
        "Design e UX",
        "Tecnologia e Design"
      ]
    },
    {
      "speakerID": "3423432424",
      "speakerName": "Leia Lopes",
      "speakerImage": "https://www.gosselinlaw.com/wp-content/uploads/2017/12/female-placeholder.jpg",
      "speakerRole": "Diretora de UX na Google Brasil",
      "speakerTags": [
        "Design e UX"
      ]
    },
    {
      "speakerID": "33333234242",
      "speakerName": "Melissa Melo",
      "speakerImage": "https://www.gosselinlaw.com/wp-content/uploads/2017/12/female-placeholder.jpg",
      "speakerRole": "CTO no Facebook",
      "speakerTags": [
        "Tecnologia e Design"
      ]
    },
    {
      "speakerID": "231231312",
      "speakerName": "Leia Lopes",
      "speakerImage": "https://www.gosselinlaw.com/wp-content/uploads/2017/12/female-placeholder.jpg",
      "speakerRole": "Diretora de UX na Google Brasil",
      "speakerTags": [
        "Design e UX"
      ]
    },
    {
      "speakerID": "11231231",
      "speakerName": "Melissa Melo",
      "speakerImage": "https://www.gosselinlaw.com/wp-content/uploads/2017/12/female-placeholder.jpg",
      "speakerRole": "CTO no Facebook",
      "speakerTags": [
        "Tecnologia e Design"
      ]
    },
    {
      "speakerID": "4353535",
      "speakerName": "Leia Lopes",
      "speakerImage": "https://www.gosselinlaw.com/wp-content/uploads/2017/12/female-placeholder.jpg",
      "speakerRole": "Diretora de UX na Google Brasil",
      "speakerTags": [
        "Design e UX"
      ]
    },
    {
      "speakerID": "656565665",
      "speakerName": "Melissa Melo",
      "speakerImage": "https://www.gosselinlaw.com/wp-content/uploads/2017/12/female-placeholder.jpg",
      "speakerRole": "CTO no Facebook",
      "speakerTags": [
        "Tecnologia e Design"
      ]
    },
    {
      "speakerID": "1231313",
      "speakerName": "Alex Lima",
      "speakerImage": "https://www.gosselinlaw.com/wp-content/uploads/2017/12/female-placeholder.jpg",
      "speakerRole": "Diretor e Product Manager na Work & Co",
      "speakerTags": [
        "Design e UX",
        "Tecnologia e Design"
      ]
    },
    {
      "speakerID": "867868786",
      "speakerName": "Leia Lopes",
      "speakerImage": "https://www.gosselinlaw.com/wp-content/uploads/2017/12/female-placeholder.jpg",
      "speakerRole": "Diretora de UX na Google Brasil",
      "speakerTags": [
        "Design e UX"
      ]
    },
    {
      "speakerID": "234242424324",
      "speakerName": "Melissa Melo",
      "speakerImage": "https://www.gosselinlaw.com/wp-content/uploads/2017/12/female-placeholder.jpg",
      "speakerRole": "CTO no Facebook",
      "speakerTags": [
        "Tecnologia e Design"
      ]
    },
    {
      "speakerID": "89898",
      "speakerName": "Leia Lopes",
      "speakerImage": "https://www.gosselinlaw.com/wp-content/uploads/2017/12/female-placeholder.jpg",
      "speakerRole": "Diretora de UX na Google Brasil",
      "speakerTags": [
        "Design e UX"
      ]
    },
    {
      "speakerID": "1123879761231",
      "speakerName": "Melissa Melo",
      "speakerImage": "https://www.gosselinlaw.com/wp-content/uploads/2017/12/female-placeholder.jpg",
      "speakerRole": "CTO no Facebook",
      "speakerTags": [
        "Tecnologia e Design"
      ]
    },
    {
      "speakerID": "2345353523",
      "speakerName": "Leia Lopes",
      "speakerImage": "https://www.gosselinlaw.com/wp-content/uploads/2017/12/female-placeholder.jpg",
      "speakerRole": "Diretora de UX na Google Brasil",
      "speakerTags": [
        "Design e UX"
      ]
    },
    {
      "speakerID": "6575674575",
      "speakerName": "Melissa Melo",
      "speakerImage": "https://www.gosselinlaw.com/wp-content/uploads/2017/12/female-placeholder.jpg",
      "speakerRole": "CTO no Facebook",
      "speakerTags": [
        "Tecnologia e Design"
      ]
    }
  ]
}