{
  "pageTitle": "Saldo e Extrato",
  "descText": "Você possui",
  "myBalance": "R$ 200,00",
  "buttonText": "Ver extrato",
  "placesTitle": "Locais de Recarga",
  "rechargePlaces": [
    {
      "name": "Inatel",
      "address": "Av. João de Camargo, 510, ao lado do credenciamento",
      "type": 1,
      "link": "https://goo.gl/maps/J6CBM9QpnHU2"
    },
    {
      "name": "Ete FMC",
      "address": "Av. Sinhá Moreira, 350, próximo as salas de palestras",
      "type": 1,
      "link": "https://goo.gl/maps/89Xoi1dMBh32"
    },
    {
      "name": "Praça Central de Santa Rita",
      "address": "Próximo ao coreto",
      "type": 1,
      "link": "https://goo.gl/maps/5hPePd2HnoA2"
    },
    {
      "name": "Restaurante Choppirado",
      "address": "Av. Sebastião Reginaldo Cunha, 6",
      "type": 2,
      "link": "https://goo.gl/maps/UyznWHHKgWw"
    },
    {
      "name": "Grandpa Joel's Coffee",
      "address": "Rua Coronel Francisco Moreira da Costa, 123",
      "type": 2,
      "link": "https://goo.gl/maps/PTiFa1hcczM2"
    },
    {
      "name": "Restaurante Japa's House",
      "address": " Rua Cel. Francisco Palma, 73 ",
      "type": 2,
      "link": "https://goo.gl/maps/pG3pN6jHuRk"
    },
    {
      "name": "Espetinho Point dos Amigos",
      "address": "R. Prof. Francisco do Nascimento, 460",
      "type": 2,
      "link": "https://goo.gl/maps/NNBNpthp15D2"
    },
    {
      "name": "Restaurante Meu Cantinho",
      "address": "Av. Sinhá Moreira, 52",
      "type": 2,
      "link": "https://goo.gl/maps/RztCJH1kYF22"
    },
    {
      "name": "Restaurante Papão",
      "address": "Praca Santa Rita, 46 ",
      "type": 2,
      "link": "https://goo.gl/maps/WgDvRaKDZMS2"
    },
    {
      "name": "Tribo do Açai",
      "address": "Rua Cesário Alvim, 15 ",
      "type": 2,
      "link": "https://goo.gl/maps/8McWf1C7v952"
    },
    {
      "name": "Ellos - Bike",
      "address": "Inatel, Ete , Praça",
      "type": 2,
      "link": "https://goo.gl/maps/LVJgMqhMCFk"
    },
    {
      "name": "Ellos - Trenzinho",
      "address": "Praça",
      "type": 2,
      "link": "https://goo.gl/maps/5hPePd2HnoA2"
    },
    {
      "name": "Onni Cervejaria",
      "address": "Praça",
      "type": 2,
      "link": "https://goo.gl/maps/5hPePd2HnoA2"
    },
    {
      "name": "Tenda Comida Mineira",
      "address": "Praça",
      "type": 2,
      "link": "https://goo.gl/maps/5hPePd2HnoA2"
    },
    {
      "name": "Burger, Inc.",
      "address": "Praça",
      "type": 2,
      "link": "https://goo.gl/maps/5hPePd2HnoA2"
    }
  ]
}